\relax 
\providecommand\hyper@newdestlabel[2]{}
\providecommand\BKM@entry[2]{}
\providecommand{\transparent@use}[1]{}
\abx@aux@refcontext{nyt/global//global/global}
\providecommand\HyperFirstAtBeginDocument{\AtBeginDocument}
\HyperFirstAtBeginDocument{\ifx\hyper@anchor\@undefined
\global\let\oldcontentsline\contentsline
\gdef\contentsline#1#2#3#4{\oldcontentsline{#1}{#2}{#3}}
\global\let\oldnewlabel\newlabel
\gdef\newlabel#1#2{\newlabelxx{#1}#2}
\gdef\newlabelxx#1#2#3#4#5#6{\oldnewlabel{#1}{{#2}{#3}}}
\AtEndDocument{\ifx\hyper@anchor\@undefined
\let\contentsline\oldcontentsline
\let\newlabel\oldnewlabel
\fi}
\fi}
\global\let\hyper@last\relax 
\gdef\HyperFirstAtBeginDocument#1{#1}
\providecommand\HyField@AuxAddToFields[1]{}
\providecommand\HyField@AuxAddToCoFields[2]{}
\AC@reset@newl@bel
\newacro{CDVAE}[CDVAE]{cross-domain variational autoencoder}
\newacro{CF}[CF]{collaborative filtering}
\newacro{CLVAE}[CLVAE]{conditional ladder variational autoencoder}
\newacro{CNN}[CNN]{convolutional neural network}
\newacro{CTR}[CTR]{collaborative topic regression}
\newacro{CVAE}[CVAE]{conditional variational autoencoder}
\newacro{CVRCF}[CVRCF]{coupled variational recurrent collaborative filtering}
\newacro{DBN}[DBN]{deep belief network}
\newacro{DGLGM}[DGLGM]{deep global and local generative model}
\newacro{DVMF}[DVMF]{deep variational matrix factorization}
\newacro{ELBO}[ELBO]{evidence lower bound}
\newacro{GAN}[GAN]{generative adversarial nets}
\newacro{GNN}[GNN]{graph neural network}
\newacro{GRU}[GRU]{gated recurrent unit}
\newacro{HVGAE}[HVGAE]{heterogeneous variational graph autoencoder}
\newacro{JVAE}[JVAE]{joint variational autoencoder}
\newacro{KL}[KL]{Kullback-Leibler}
\newacro{LDA}[LDA]{latent Dirichlet allocation}
\newacro{LFM}[LFM]{latent factor model}
\newacro{List-CVAE}[List-CVAE]{list conditional variational auto-encoders}
\newacro{LSTM}[LSTM]{long short term memory}
\newacro{LVA}[LVA]{linked variational autoencoder}
\newacro{LVAE}[LVAE]{ladder variational autoencoder}
\newacro{MF}[MF]{matrix factorization}
\newacro{MLP}[MLP]{multilayer perceptron}
\newacro{NCF}[NCF]{neural collaborative filtering}
\newacro{PMF}[PMF]{probabilistic matrix factorization}
\newacro{RMSE}[RMSE]{root mean square error}
\newacro{RBM}[RBM]{restricted Boltzmann machine}
\newacro{RNN}[RNN]{recurrent neural network}
\newacro{SGD}[SGD]{stochastic gradient descent}
\newacro{SGVB}[SGVB]{stochastic gradient variational Bayes}
\newacro{TSTM}[TSTM]{tripled seq2seq translation model}
\newacro{VAE}[VAE]{variational autoencoder}
\newacro{VASER}[VASER]{variational session-based recommendation}
\newacro{VBCAR}[VBCAR]{variational Bayesian context-aware representation}
\newacro{VCM}[VCM]{variational collaborative model}
\newacro{VRM}[VRM]{variational recurrent model}
\newacro{VRNN-BPR}[VRNN-BPR]{variational recurrent neural network for session-based recommendation using Bayesian personalized ranking}
\@writefile{toc}{\boolfalse {citerequest}\boolfalse {citetracker}\boolfalse {pagetracker}\boolfalse {backtracker}\relax }
\@writefile{lof}{\boolfalse {citerequest}\boolfalse {citetracker}\boolfalse {pagetracker}\boolfalse {backtracker}\relax }
\@writefile{lot}{\boolfalse {citerequest}\boolfalse {citetracker}\boolfalse {pagetracker}\boolfalse {backtracker}\relax }
\@writefile{toc}{\defcounter {refsection}{0}\relax }\@writefile{toc}{\thispagestyle {empty}}
\BKM@entry{id=1,dest={636861707465722E31},srcline={3}}{496E74726F64756374696F6E}
\abx@aux@cite{jordan2015machine}
\abx@aux@segm{0}{0}{jordan2015machine}
\abx@aux@cite{feurer2019hyperparameter}
\abx@aux@segm{0}{0}{feurer2019hyperparameter}
\@writefile{toc}{\defcounter {refsection}{0}\relax }\@writefile{toc}{\contentsline {chapter}{\numberline {1}Introduction}{2}{chapter.1}\protected@file@percent }
\@writefile{lof}{\defcounter {refsection}{0}\relax }\@writefile{lof}{\addvspace {10\p@ }}
\@writefile{lot}{\defcounter {refsection}{0}\relax }\@writefile{lot}{\addvspace {10\p@ }}
\newlabel{sec:introduction}{{1}{2}{Introduction}{chapter.1}{}}
\abx@aux@page{1}{2}
\abx@aux@page{2}{2}
\abx@aux@cite{melis2017state}
\abx@aux@segm{0}{0}{melis2017state}
\abx@aux@cite{bergstra2013making}
\abx@aux@segm{0}{0}{bergstra2013making}
\abx@aux@cite{feurer2019hyperparameter}
\abx@aux@segm{0}{0}{feurer2019hyperparameter}
\abx@aux@page{3}{3}
\abx@aux@page{4}{3}
\abx@aux@page{5}{3}
\abx@aux@cite{galuzzi2020hyperparameter}
\abx@aux@segm{0}{0}{galuzzi2020hyperparameter}
\abx@aux@cite{yin2021autotinybert}
\abx@aux@segm{0}{0}{yin2021autotinybert}
\abx@aux@cite{jafar2021high}
\abx@aux@segm{0}{0}{jafar2021high}
\abx@aux@cite{jafar2020hyperparameter}
\abx@aux@segm{0}{0}{jafar2020hyperparameter}
\abx@aux@cite{tran2020hyperparameter}
\abx@aux@segm{0}{0}{tran2020hyperparameter}
\abx@aux@cite{zahedi2021optabc}
\abx@aux@segm{0}{0}{zahedi2021optabc}
\abx@aux@cite{serqueira2020population}
\abx@aux@segm{0}{0}{serqueira2020population}
\abx@aux@cite{mellor2021neural}
\abx@aux@segm{0}{0}{mellor2021neural}
\abx@aux@cite{feurer2019hyperparameter}
\abx@aux@segm{0}{0}{feurer2019hyperparameter}
\abx@aux@cite{yu2020hyper}
\abx@aux@segm{0}{0}{yu2020hyper}
\abx@aux@cite{yang2020hyperparameter}
\abx@aux@segm{0}{0}{yang2020hyperparameter}
\abx@aux@cite{bischl2021hyperparameter}
\abx@aux@segm{0}{0}{bischl2021hyperparameter}
\abx@aux@page{6}{5}
\abx@aux@page{7}{5}
\abx@aux@page{8}{5}
\abx@aux@page{9}{5}
\abx@aux@page{10}{5}
\abx@aux@page{11}{5}
\abx@aux@page{12}{5}
\abx@aux@page{13}{5}
\abx@aux@page{14}{5}
\@writefile{lof}{\defcounter {refsection}{0}\relax }\@writefile{lof}{\contentsline {figure}{\numberline {1.1}{\ignorespaces Hyperparameter Optimization publications during the years 2010-2021.\relax }}{6}{figure.caption.2}\protected@file@percent }
\providecommand*\caption@xref[2]{\@setref\relax\@undefined{#1}}
\newlabel{fig:pubs}{{1.1}{6}{Hyperparameter Optimization publications during the years 2010-2021.\relax }{figure.caption.2}{}}
\abx@aux@page{15}{6}
\abx@aux@page{16}{6}
\abx@aux@page{17}{6}
\BKM@entry{id=2,dest={636861707465722E32},srcline={5}}{5072656C696D696E6172696573}
\abx@aux@cite{jordan2015machine}
\abx@aux@segm{0}{0}{jordan2015machine}
\@writefile{toc}{\defcounter {refsection}{0}\relax }\@writefile{toc}{\contentsline {chapter}{\numberline {2}Preliminaries}{8}{chapter.2}\protected@file@percent }
\@writefile{lof}{\defcounter {refsection}{0}\relax }\@writefile{lof}{\addvspace {10\p@ }}
\@writefile{lot}{\defcounter {refsection}{0}\relax }\@writefile{lot}{\addvspace {10\p@ }}
\newlabel{sec:preliminary}{{2}{8}{Preliminaries}{chapter.2}{}}
\abx@aux@page{18}{8}
\abx@aux@cite{mohammed2016machine}
\abx@aux@segm{0}{0}{mohammed2016machine}
\abx@aux@cite{han2011data}
\abx@aux@segm{0}{0}{han2011data}
\abx@aux@cite{jordan2015machine}
\abx@aux@segm{0}{0}{jordan2015machine}
\abx@aux@cite{han2011data}
\abx@aux@segm{0}{0}{han2011data}
\abx@aux@cite{han2011data}
\abx@aux@segm{0}{0}{han2011data}
\abx@aux@cite{kaelbling1996reinforcement}
\abx@aux@segm{0}{0}{kaelbling1996reinforcement}
\abx@aux@cite{mohri2018foundations}
\abx@aux@segm{0}{0}{mohri2018foundations}
\abx@aux@page{19}{9}
\abx@aux@page{20}{9}
\abx@aux@page{21}{9}
\abx@aux@page{22}{9}
\abx@aux@page{23}{9}
\abx@aux@page{24}{9}
\abx@aux@page{25}{9}
\abx@aux@cite{neter1996applied}
\abx@aux@segm{0}{0}{neter1996applied}
\abx@aux@cite{keller1985fuzzy}
\abx@aux@segm{0}{0}{keller1985fuzzy}
\abx@aux@cite{shawe2004kernel}
\abx@aux@segm{0}{0}{shawe2004kernel}
\abx@aux@cite{safavian1991survey}
\abx@aux@segm{0}{0}{safavian1991survey}
\abx@aux@cite{hartigan1979algorithm}
\abx@aux@segm{0}{0}{hartigan1979algorithm}
\abx@aux@cite{mccallum1998comparison}
\abx@aux@segm{0}{0}{mccallum1998comparison}
\abx@aux@cite{lecun2015deep}
\abx@aux@segm{0}{0}{lecun2015deep}
\abx@aux@cite{graves2013speech}
\abx@aux@segm{0}{0}{graves2013speech}
\@writefile{lof}{\defcounter {refsection}{0}\relax }\@writefile{lof}{\contentsline {figure}{\numberline {2.1}{\ignorespaces Various types of machine learning techniques.\nobreakspace  {}\leavevmode {\color  {magenta}SL: \textbf  {The figure is missing here.}} \leavevmode {\color  {blue}The picture has been supplemented. Please check it}\relax }}{10}{figure.caption.3}\protected@file@percent }
\newlabel{fig:types}{{2.1}{10}{Various types of machine learning techniques.~\SL {The figure is missing here.} \textcolor {blue}{The picture has been supplemented. Please check it}\relax }{figure.caption.3}{}}
\abx@aux@page{26}{10}
\abx@aux@page{27}{10}
\abx@aux@page{28}{10}
\abx@aux@page{29}{10}
\abx@aux@page{30}{10}
\abx@aux@page{31}{10}
\abx@aux@page{32}{10}
\abx@aux@page{33}{10}
\BKM@entry{id=3,dest={636861707465722E33},srcline={4}}{506170657220636F6C6C656374696F6E}
\BKM@entry{id=4,dest={73656374696F6E2E332E31},srcline={12}}{5375727665792053636F7065}
\@writefile{toc}{\defcounter {refsection}{0}\relax }\@writefile{toc}{\contentsline {chapter}{\numberline {3}Paper collection}{14}{chapter.3}\protected@file@percent }
\@writefile{lof}{\defcounter {refsection}{0}\relax }\@writefile{lof}{\addvspace {10\p@ }}
\@writefile{lot}{\defcounter {refsection}{0}\relax }\@writefile{lot}{\addvspace {10\p@ }}
\newlabel{sec:collection}{{3}{14}{Paper collection}{chapter.3}{}}
\@writefile{toc}{\defcounter {refsection}{0}\relax }\@writefile{toc}{\contentsline {section}{\numberline {3.1}Survey Scope}{14}{section.3.1}\protected@file@percent }
\newlabel{sub:scope}{{3.1}{14}{Survey Scope}{section.3.1}{}}
\BKM@entry{id=5,dest={73656374696F6E2E332E32},srcline={42}}{506170657220436F6C6C656374696F6E204D6574686F646F6C6F6779}
\@writefile{tdo}{\defcounter {refsection}{0}\relax }\@writefile{tdo}{\contentsline {todo}{MA: 'the' hyperparameter optimisation method, 'the' machine learning model - is this about a specific method/model?}{15}{section*.4}\protected@file@percent }
\pgfsyspdfmark {pgfid1}{5635918}{37165985}
\pgfsyspdfmark {pgfid4}{27386990}{37181432}
\pgfsyspdfmark {pgfid5}{28769115}{36934258}
\@writefile{toc}{\defcounter {refsection}{0}\relax }\@writefile{toc}{\contentsline {section}{\numberline {3.2}Paper Collection Methodology}{15}{section.3.2}\protected@file@percent }
\@writefile{tdo}{\defcounter {refsection}{0}\relax }\@writefile{tdo}{\contentsline {todo}{MA: elaborate?}{15}{section*.5}\protected@file@percent }
\pgfsyspdfmark {pgfid6}{3542892}{7932870}
\pgfsyspdfmark {pgfid9}{27386990}{7948317}
\pgfsyspdfmark {pgfid10}{28769115}{7701143}
\BKM@entry{id=6,dest={73656374696F6E2E332E33},srcline={109}}{436F6C6C656374696F6E20526573756C74}
\BKM@entry{id=7,dest={73656374696F6E2E332E34},srcline={125}}{5061706572204F7267616E69736174696F6E}
\@writefile{lot}{\defcounter {refsection}{0}\relax }\@writefile{lot}{\contentsline {table}{\numberline {3.1}{\ignorespaces Paper Query Results\relax }}{16}{table.caption.6}\protected@file@percent }
\newlabel{tab:keyword}{{3.1}{16}{Paper Query Results\relax }{table.caption.6}{}}
\@writefile{toc}{\defcounter {refsection}{0}\relax }\@writefile{toc}{\contentsline {section}{\numberline {3.3}Collection Result}{16}{section.3.3}\protected@file@percent }
\@writefile{tdo}{\defcounter {refsection}{0}\relax }\@writefile{tdo}{\contentsline {todo}{MA:redundant?}{16}{section*.8}\protected@file@percent }
\pgfsyspdfmark {pgfid11}{22366557}{15350480}
\pgfsyspdfmark {pgfid12}{1669246}{15365927}
\pgfsyspdfmark {pgfid13}{3051371}{15118753}
\@writefile{toc}{\defcounter {refsection}{0}\relax }\@writefile{toc}{\contentsline {section}{\numberline {3.4}Paper Organisation}{16}{section.3.4}\protected@file@percent }
\@writefile{lof}{\defcounter {refsection}{0}\relax }\@writefile{lof}{\contentsline {figure}{\numberline {3.1}{\ignorespaces Publication Venue Distribution.\nobreakspace  {}\leavevmode {\color  {magenta}SL: \textbf  {The font size applied in this figure is too small. The figure should be in pdf/eps format such that it is legible.}}\relax }}{17}{figure.caption.9}\protected@file@percent }
\newlabel{fig:visual}{{3.1}{17}{Publication Venue Distribution.~\SL {The font size applied in this figure is too small. The figure should be in pdf/eps format such that it is legible.}\relax }{figure.caption.9}{}}
\@writefile{lot}{\defcounter {refsection}{0}\relax }\@writefile{lot}{\contentsline {table}{\numberline {3.2}{\ignorespaces Review Schema\relax }}{17}{table.caption.10}\protected@file@percent }
\newlabel{tab:review}{{3.2}{17}{Review Schema\relax }{table.caption.10}{}}
\@writefile{toc}{\defcounter {refsection}{0}\relax }\@writefile{toc}{\contentsline {paragraph}{1) Literature Review.}{17}{paragraph*.12}\protected@file@percent }
\@writefile{toc}{\defcounter {refsection}{0}\relax }\@writefile{toc}{\contentsline {paragraph}{2) Statistical Analysis and Summary.}{17}{paragraph*.13}\protected@file@percent }
\BKM@entry{id=8,dest={636861707465722E34},srcline={4}}{53756D6D617279206F6620706172616D6574657220616E64204879706572706172616D657465722061646A7573746D656E74206D6574686F6473}
\BKM@entry{id=9,dest={73656374696F6E2E342E31},srcline={7}}{4879706572706172616D6574657220496E697469616C697A6174696F6E204D6574686F64}
\abx@aux@cite{winston1992artificial}
\abx@aux@segm{0}{0}{winston1992artificial}
\abx@aux@cite{bishop1995neural}
\abx@aux@segm{0}{0}{bishop1995neural}
\abx@aux@cite{winston1992artificial}
\abx@aux@segm{0}{0}{winston1992artificial}
\abx@aux@cite{mishkin2015all}
\abx@aux@segm{0}{0}{mishkin2015all}
\@writefile{toc}{\defcounter {refsection}{0}\relax }\@writefile{toc}{\contentsline {chapter}{\numberline {4}Summary of parameter and Hyperparameter adjustment methods}{19}{chapter.4}\protected@file@percent }
\@writefile{lof}{\defcounter {refsection}{0}\relax }\@writefile{lof}{\addvspace {10\p@ }}
\@writefile{lot}{\defcounter {refsection}{0}\relax }\@writefile{lot}{\addvspace {10\p@ }}
\newlabel{sec:mainapproaches}{{4}{19}{Summary of parameter and Hyperparameter adjustment methods}{chapter.4}{}}
\@writefile{toc}{\defcounter {refsection}{0}\relax }\@writefile{toc}{\contentsline {section}{\numberline {4.1}Hyperparameter Initialization Method}{19}{section.4.1}\protected@file@percent }
\newlabel{sec:Initialization}{{4.1}{19}{Hyperparameter Initialization Method}{section.4.1}{}}
\abx@aux@page{34}{19}
\abx@aux@page{35}{19}
\abx@aux@page{36}{19}
\@writefile{tdo}{\defcounter {refsection}{0}\relax }\@writefile{tdo}{\contentsline {todo}{MA: should you define perceptron first?}{19}{section*.14}\protected@file@percent }
\pgfsyspdfmark {pgfid16}{3542892}{13638795}
\pgfsyspdfmark {pgfid19}{27386990}{13654242}
\pgfsyspdfmark {pgfid20}{28769115}{13407068}
\abx@aux@page{37}{19}
\abx@aux@cite{nwankpa2018activation}
\abx@aux@segm{0}{0}{nwankpa2018activation}
\abx@aux@cite{nwankpa2018activation}
\abx@aux@segm{0}{0}{nwankpa2018activation}
\abx@aux@cite{hornik1989multilayer}
\abx@aux@segm{0}{0}{hornik1989multilayer}
\abx@aux@cite{nair2010rectified}
\abx@aux@segm{0}{0}{nair2010rectified}
\abx@aux@cite{ramachandran2017searching}
\abx@aux@segm{0}{0}{ramachandran2017searching}
\@writefile{lof}{\defcounter {refsection}{0}\relax }\@writefile{lof}{\contentsline {figure}{\numberline {4.1}{\ignorespaces structure-of-a-single-layer-perceptron}}{20}{figure.caption.15}\protected@file@percent }
\newlabel{fig:structure-of-a-single-layer-perceptron}{{4.1}{20}{structure-of-a-single-layer-perceptron}{figure.caption.15}{}}
\@writefile{toc}{\defcounter {refsection}{0}\relax }\@writefile{toc}{\contentsline {subsection}{\numberline {4.1.1}Activation Function}{20}{subsection.4.1.1}\protected@file@percent }
\newlabel{sec:Activation}{{4.1.1}{20}{Activation Function}{subsection.4.1.1}{}}
\@writefile{toc}{\defcounter {refsection}{0}\relax }\@writefile{toc}{\contentsline {paragraph}{Sigmoid/Logistic Sigmoid Function}{20}{paragraph*.16}\protected@file@percent }
\abx@aux@page{38}{20}
\abx@aux@page{39}{20}
\abx@aux@page{40}{20}
\abx@aux@cite{ramachandran2017searching}
\abx@aux@segm{0}{0}{ramachandran2017searching}
\abx@aux@cite{krizhevsky2012imagenet}
\abx@aux@segm{0}{0}{krizhevsky2012imagenet}
\abx@aux@cite{zeiler2013rectified}
\abx@aux@segm{0}{0}{zeiler2013rectified}
\abx@aux@cite{dahl2013improving}
\abx@aux@segm{0}{0}{dahl2013improving}
\abx@aux@cite{he2015delving}
\abx@aux@segm{0}{0}{he2015delving}
\abx@aux@cite{he2015delving}
\abx@aux@segm{0}{0}{he2015delving}
\@writefile{toc}{\defcounter {refsection}{0}\relax }\@writefile{toc}{\contentsline {paragraph}{ReLU Function}{21}{paragraph*.17}\protected@file@percent }
\abx@aux@page{41}{21}
\abx@aux@page{42}{21}
\abx@aux@page{43}{21}
\abx@aux@page{44}{21}
\abx@aux@page{45}{21}
\abx@aux@page{46}{21}
\@writefile{toc}{\defcounter {refsection}{0}\relax }\@writefile{toc}{\contentsline {paragraph}{Parametric ReLU Function}{21}{paragraph*.18}\protected@file@percent }
\abx@aux@page{47}{21}
\abx@aux@page{48}{21}
\abx@aux@cite{glorot2010understanding}
\abx@aux@segm{0}{0}{glorot2010understanding}
\abx@aux@cite{glorot2010understanding}
\abx@aux@segm{0}{0}{glorot2010understanding}
\@writefile{toc}{\defcounter {refsection}{0}\relax }\@writefile{toc}{\contentsline {subsection}{\numberline {4.1.2}Weight Initialization}{22}{subsection.4.1.2}\protected@file@percent }
\@writefile{toc}{\defcounter {refsection}{0}\relax }\@writefile{toc}{\contentsline {paragraph}{Xavier Initialization}{22}{paragraph*.19}\protected@file@percent }
\abx@aux@page{49}{22}
\abx@aux@page{50}{22}
\abx@aux@cite{he2015delving}
\abx@aux@segm{0}{0}{he2015delving}
\abx@aux@cite{datta2020survey}
\abx@aux@segm{0}{0}{datta2020survey}
\BKM@entry{id=10,dest={73656374696F6E2E342E32},srcline={162}}{4879706572706172616D65746572204F7074696D697A6174696F6E204D6574686F64}
\abx@aux@cite{kohavi1995automatic}
\abx@aux@segm{0}{0}{kohavi1995automatic}
\abx@aux@cite{schaffer1993selecting}
\abx@aux@segm{0}{0}{schaffer1993selecting}
\abx@aux@cite{kirkpatrick1983optimization}
\abx@aux@segm{0}{0}{kirkpatrick1983optimization}
\abx@aux@cite{lindley1972bayes}
\abx@aux@segm{0}{0}{lindley1972bayes}
\@writefile{toc}{\defcounter {refsection}{0}\relax }\@writefile{toc}{\contentsline {paragraph}{Kaming He Initialization}{23}{paragraph*.20}\protected@file@percent }
\abx@aux@page{51}{23}
\@writefile{toc}{\defcounter {refsection}{0}\relax }\@writefile{toc}{\contentsline {subsection}{\numberline {4.1.3}Conclusion}{23}{subsection.4.1.3}\protected@file@percent }
\abx@aux@page{52}{23}
\@writefile{toc}{\defcounter {refsection}{0}\relax }\@writefile{toc}{\contentsline {section}{\numberline {4.2}Hyperparameter Optimization Method}{23}{section.4.2}\protected@file@percent }
\newlabel{sec:Optimization}{{4.2}{23}{Hyperparameter Optimization Method}{section.4.2}{}}
\abx@aux@page{53}{23}
\abx@aux@page{54}{23}
\abx@aux@page{55}{23}
\abx@aux@page{56}{23}
\abx@aux@cite{hutter2019automated}
\abx@aux@segm{0}{0}{hutter2019automated}
\abx@aux@page{57}{24}
\@writefile{lof}{\defcounter {refsection}{0}\relax }\@writefile{lof}{\contentsline {figure}{\numberline {4.2}{\ignorespaces Hyperparameter optimization method\relax }}{24}{figure.caption.21}\protected@file@percent }
\newlabel{fig:HPO}{{4.2}{24}{Hyperparameter optimization method\relax }{figure.caption.21}{}}
\@writefile{toc}{\defcounter {refsection}{0}\relax }\@writefile{toc}{\contentsline {subsection}{\numberline {4.2.1}Black box optimization}{24}{subsection.4.2.1}\protected@file@percent }
\abx@aux@cite{xiong2020minimizing}
\abx@aux@segm{0}{0}{xiong2020minimizing}
\abx@aux@cite{bergstrga2012random}
\abx@aux@segm{0}{0}{bergstrga2012random}
\abx@aux@cite{tan2019efficientnet}
\abx@aux@segm{0}{0}{tan2019efficientnet}
\abx@aux@cite{fayed2019speed}
\abx@aux@segm{0}{0}{fayed2019speed}
\abx@aux@cite{syarif2016svm}
\abx@aux@segm{0}{0}{syarif2016svm}
\abx@aux@cite{bergstra2012random}
\abx@aux@segm{0}{0}{bergstra2012random}
\abx@aux@cite{bergstra2012random}
\abx@aux@segm{0}{0}{bergstra2012random}
\abx@aux@cite{ng2017improving}
\abx@aux@segm{0}{0}{ng2017improving}
\@writefile{toc}{\defcounter {refsection}{0}\relax }\@writefile{toc}{\contentsline {paragraph}{Grid Search}{25}{paragraph*.22}\protected@file@percent }
\abx@aux@page{58}{25}
\abx@aux@page{59}{25}
\abx@aux@page{60}{25}
\abx@aux@page{61}{25}
\@writefile{lof}{\defcounter {refsection}{0}\relax }\@writefile{lof}{\contentsline {figure}{\numberline {4.3}{\ignorespaces Comparision between grid search and random search \citep {bergstra2012random}\relax }}{25}{figure.caption.23}\protected@file@percent }
\newlabel{fig:random}{{4.3}{25}{Comparision between grid search and random search \citep {bergstra2012random}\relax }{figure.caption.23}{}}
\abx@aux@cite{harrison2010introduction}
\abx@aux@segm{0}{0}{harrison2010introduction}
\abx@aux@cite{krivulin2005parallel}
\abx@aux@segm{0}{0}{krivulin2005parallel}
\abx@aux@cite{bergstra2012random}
\abx@aux@segm{0}{0}{bergstra2012random}
\@writefile{toc}{\defcounter {refsection}{0}\relax }\@writefile{toc}{\contentsline {paragraph}{Random Search}{26}{paragraph*.25}\protected@file@percent }
\abx@aux@page{64}{26}
\@writefile{loa}{\defcounter {refsection}{0}\relax }\@writefile{loa}{\contentsline {algorithm}{\numberline {1}{\ignorespaces flowchart of random-search\relax }}{26}{algorithm.1}\protected@file@percent }
\newlabel{alg:Framwork}{{1}{26}{flowchart of random-search\relax }{algorithm.1}{}}
\abx@aux@page{65}{26}
\abx@aux@page{66}{26}
\abx@aux@page{67}{26}
\abx@aux@cite{raychaudhuri2008introduction}
\abx@aux@segm{0}{0}{raychaudhuri2008introduction}
\abx@aux@cite{harrison2010introduction}
\abx@aux@segm{0}{0}{harrison2010introduction}
\abx@aux@cite{mckay2000comparison}
\abx@aux@segm{0}{0}{mckay2000comparison}
\abx@aux@cite{kirkpatrick1983optimization}
\abx@aux@segm{0}{0}{kirkpatrick1983optimization}
\abx@aux@cite{gulcu2020hyper}
\abx@aux@segm{0}{0}{gulcu2020hyper}
\abx@aux@page{68}{27}
\abx@aux@page{69}{27}
\abx@aux@page{70}{27}
\abx@aux@page{71}{27}
\abx@aux@page{72}{27}
\abx@aux@cite{ram1996parallel}
\abx@aux@segm{0}{0}{ram1996parallel}
\abx@aux@cite{gogna2013metaheuristics}
\abx@aux@segm{0}{0}{gogna2013metaheuristics}
\abx@aux@cite{yan2008study}
\abx@aux@segm{0}{0}{yan2008study}
\abx@aux@cite{tsai2020optimizing}
\abx@aux@segm{0}{0}{tsai2020optimizing}
\abx@aux@cite{gulcu2020hyper}
\abx@aux@segm{0}{0}{gulcu2020hyper}
\abx@aux@cite{fischetti2019embedded}
\abx@aux@segm{0}{0}{fischetti2019embedded}
\abx@aux@cite{khan2020hyper}
\abx@aux@segm{0}{0}{khan2020hyper}
\abx@aux@cite{kushner1964new}
\abx@aux@segm{0}{0}{kushner1964new}
\abx@aux@cite{lindley1972bayes}
\abx@aux@segm{0}{0}{lindley1972bayes}
\abx@aux@cite{movckus1975bayesian}
\abx@aux@segm{0}{0}{movckus1975bayesian}
\abx@aux@cite{mockus1978application}
\abx@aux@segm{0}{0}{mockus1978application}
\abx@aux@cite{shahriari2015taking}
\abx@aux@segm{0}{0}{shahriari2015taking}
\abx@aux@page{73}{28}
\abx@aux@page{74}{28}
\abx@aux@page{75}{28}
\abx@aux@page{76}{28}
\abx@aux@page{77}{28}
\abx@aux@page{78}{28}
\abx@aux@page{79}{28}
\@writefile{toc}{\defcounter {refsection}{0}\relax }\@writefile{toc}{\contentsline {paragraph}{Bayesian Optimization}{28}{paragraph*.26}\protected@file@percent }
\abx@aux@page{80}{28}
\abx@aux@page{81}{28}
\abx@aux@cite{frazier2018tutorial}
\abx@aux@segm{0}{0}{frazier2018tutorial}
\abx@aux@page{82}{29}
\abx@aux@page{83}{29}
\abx@aux@page{84}{29}
\abx@aux@page{85}{29}
\abx@aux@cite{williams1996gaussian}
\abx@aux@segm{0}{0}{williams1996gaussian}
\abx@aux@cite{snoek2012practical}
\abx@aux@segm{0}{0}{snoek2012practical}
\abx@aux@cite{hutter2011sequential}
\abx@aux@segm{0}{0}{hutter2011sequential}
\abx@aux@page{86}{30}
\abx@aux@page{87}{30}
\abx@aux@page{88}{30}
\abx@aux@cite{bergstra2011algorithms}
\abx@aux@segm{0}{0}{bergstra2011algorithms}
\abx@aux@cite{bergstra2013making}
\abx@aux@segm{0}{0}{bergstra2013making}
\abx@aux@cite{komer2014hyperopt}
\abx@aux@segm{0}{0}{komer2014hyperopt}
\abx@aux@cite{ozaki2020multiobjective}
\abx@aux@segm{0}{0}{ozaki2020multiobjective}
\abx@aux@page{89}{31}
\abx@aux@page{90}{31}
\abx@aux@cite{hoffman2011portfolio}
\abx@aux@segm{0}{0}{hoffman2011portfolio}
\abx@aux@cite{brochu2010bayesian}
\abx@aux@segm{0}{0}{brochu2010bayesian}
\abx@aux@cite{hernandez2014predictive}
\abx@aux@segm{0}{0}{hernandez2014predictive}
\abx@aux@cite{shahriari2015taking}
\abx@aux@segm{0}{0}{shahriari2015taking}
\abx@aux@cite{jones1998efficient}
\abx@aux@segm{0}{0}{jones1998efficient}
\abx@aux@page{91}{32}
\abx@aux@page{92}{32}
\abx@aux@page{93}{32}
\abx@aux@page{94}{32}
\abx@aux@page{95}{32}
\abx@aux@page{96}{32}
\abx@aux@cite{shahriari2015taking}
\abx@aux@segm{0}{0}{shahriari2015taking}
\abx@aux@cite{frazier2018tutorial}
\abx@aux@segm{0}{0}{frazier2018tutorial}
\abx@aux@cite{back1993overview}
\abx@aux@segm{0}{0}{back1993overview}
\abx@aux@cite{holland1992genetic}
\abx@aux@segm{0}{0}{holland1992genetic}
\abx@aux@cite{kennedy1995particle}
\abx@aux@segm{0}{0}{kennedy1995particle}
\abx@aux@cite{dorigo1991positive}
\abx@aux@segm{0}{0}{dorigo1991positive}
\abx@aux@cite{di2018genetic}
\abx@aux@segm{0}{0}{di2018genetic}
\abx@aux@cite{slowik2020evolutionary}
\abx@aux@segm{0}{0}{slowik2020evolutionary}
\abx@aux@page{97}{33}
\abx@aux@page{98}{33}
\abx@aux@page{99}{33}
\@writefile{toc}{\defcounter {refsection}{0}\relax }\@writefile{toc}{\contentsline {paragraph}{Population-based Algorithm}{33}{paragraph*.28}\protected@file@percent }
\abx@aux@page{100}{33}
\abx@aux@page{101}{33}
\abx@aux@page{102}{33}
\abx@aux@page{103}{33}
\abx@aux@cite{holland1992adaptation}
\abx@aux@segm{0}{0}{holland1992adaptation}
\abx@aux@cite{koza1994genetic}
\abx@aux@segm{0}{0}{koza1994genetic}
\abx@aux@cite{hansen2003reducing}
\abx@aux@segm{0}{0}{hansen2003reducing}
\abx@aux@cite{yao1999evolutionary}
\abx@aux@segm{0}{0}{yao1999evolutionary}
\abx@aux@cite{katoch2020review}
\abx@aux@segm{0}{0}{katoch2020review}
\abx@aux@cite{sivanandam2008genetic}
\abx@aux@segm{0}{0}{sivanandam2008genetic}
\abx@aux@page{104}{34}
\abx@aux@page{105}{34}
\abx@aux@page{106}{34}
\abx@aux@page{107}{34}
\abx@aux@page{108}{34}
\abx@aux@page{109}{34}
\abx@aux@page{110}{34}
\abx@aux@page{111}{34}
\abx@aux@cite{chen2004model}
\abx@aux@segm{0}{0}{chen2004model}
\abx@aux@cite{bouktif2018optimal}
\abx@aux@segm{0}{0}{bouktif2018optimal}
\abx@aux@cite{altiparmak2006genetic}
\abx@aux@segm{0}{0}{altiparmak2006genetic}
\abx@aux@cite{ding2011optimizing}
\abx@aux@segm{0}{0}{ding2011optimizing}
\abx@aux@cite{kennedy1995particle}
\abx@aux@segm{0}{0}{kennedy1995particle}
\abx@aux@cite{bai2010analysis}
\abx@aux@segm{0}{0}{bai2010analysis}
\abx@aux@cite{lorenzo2017particle}
\abx@aux@segm{0}{0}{lorenzo2017particle}
\abx@aux@cite{rini2011particle}
\abx@aux@segm{0}{0}{rini2011particle}
\abx@aux@page{112}{35}
\abx@aux@page{113}{35}
\abx@aux@page{114}{35}
\abx@aux@page{115}{35}
\@writefile{loa}{\defcounter {refsection}{0}\relax }\@writefile{loa}{\contentsline {algorithm}{\numberline {2}{\ignorespaces flowchart of genetic algorithm\relax }}{35}{algorithm.2}\protected@file@percent }
\newlabel{alg:gene}{{2}{35}{flowchart of genetic algorithm\relax }{algorithm.2}{}}
\abx@aux@page{116}{35}
\abx@aux@page{117}{35}
\abx@aux@cite{dorigo1991positive}
\abx@aux@segm{0}{0}{dorigo1991positive}
\abx@aux@cite{colorni1991distributed}
\abx@aux@segm{0}{0}{colorni1991distributed}
\abx@aux@cite{dorigo1996ant}
\abx@aux@segm{0}{0}{dorigo1996ant}
\abx@aux@cite{deng2020effective}
\abx@aux@segm{0}{0}{deng2020effective}
\abx@aux@cite{deng2019improved}
\abx@aux@segm{0}{0}{deng2019improved}
\abx@aux@cite{dorigo2006ant}
\abx@aux@segm{0}{0}{dorigo2006ant}
\abx@aux@cite{jlassi2021bayesian}
\abx@aux@segm{0}{0}{jlassi2021bayesian}
\abx@aux@page{118}{36}
\abx@aux@page{119}{36}
\abx@aux@page{120}{36}
\abx@aux@page{121}{36}
\abx@aux@page{122}{36}
\abx@aux@page{123}{36}
\abx@aux@page{124}{36}
\abx@aux@page{125}{36}
\abx@aux@page{126}{36}
\abx@aux@cite{jaderberg2017population}
\abx@aux@segm{0}{0}{jaderberg2017population}
\abx@aux@cite{loshchilov2016cma}
\abx@aux@segm{0}{0}{loshchilov2016cma}
\abx@aux@cite{goodfellow2014generative}
\abx@aux@segm{0}{0}{goodfellow2014generative}
\abx@aux@cite{vaswani2017attention}
\abx@aux@segm{0}{0}{vaswani2017attention}
\abx@aux@cite{li2019generalized}
\abx@aux@segm{0}{0}{li2019generalized}
\abx@aux@page{127}{37}
\abx@aux@page{128}{37}
\abx@aux@page{129}{37}
\abx@aux@page{130}{37}
\abx@aux@cite{hu2019multi}
\abx@aux@segm{0}{0}{hu2019multi}
\abx@aux@cite{fernandez2016review}
\abx@aux@segm{0}{0}{fernandez2016review}
\abx@aux@cite{peherstorfer2018survey}
\abx@aux@segm{0}{0}{peherstorfer2018survey}
\abx@aux@cite{hu2019multi}
\abx@aux@segm{0}{0}{hu2019multi}
\abx@aux@cite{sen2018multi}
\abx@aux@segm{0}{0}{sen2018multi}
\abx@aux@cite{forrester2007multi}
\abx@aux@segm{0}{0}{forrester2007multi}
\abx@aux@cite{kandasamy2017multi}
\abx@aux@segm{0}{0}{kandasamy2017multi}
\abx@aux@cite{li2020multi}
\abx@aux@segm{0}{0}{li2020multi}
\abx@aux@cite{yao2007early}
\abx@aux@segm{0}{0}{yao2007early}
\abx@aux@cite{prechelt1998early}
\abx@aux@segm{0}{0}{prechelt1998early}
\abx@aux@page{131}{38}
\@writefile{toc}{\defcounter {refsection}{0}\relax }\@writefile{toc}{\contentsline {subsection}{\numberline {4.2.2}Multi-fidelity Model}{38}{subsection.4.2.2}\protected@file@percent }
\abx@aux@page{132}{38}
\abx@aux@page{133}{38}
\abx@aux@page{134}{38}
\abx@aux@page{135}{38}
\abx@aux@page{136}{38}
\abx@aux@page{137}{38}
\abx@aux@page{138}{38}
\abx@aux@page{139}{38}
\@writefile{toc}{\defcounter {refsection}{0}\relax }\@writefile{toc}{\contentsline {paragraph}{Learning Curve}{38}{paragraph*.29}\protected@file@percent }
\abx@aux@page{140}{38}
\abx@aux@page{141}{38}
\abx@aux@cite{domhan2015speeding}
\abx@aux@segm{0}{0}{domhan2015speeding}
\abx@aux@cite{swersky2014freeze}
\abx@aux@segm{0}{0}{swersky2014freeze}
\abx@aux@cite{klein2016learning}
\abx@aux@segm{0}{0}{klein2016learning}
\abx@aux@cite{baker2017accelerating}
\abx@aux@segm{0}{0}{baker2017accelerating}
\abx@aux@cite{rawal2018nodes}
\abx@aux@segm{0}{0}{rawal2018nodes}
\abx@aux@cite{swersky2014freeze}
\abx@aux@segm{0}{0}{swersky2014freeze}
\abx@aux@cite{liu2018progressive}
\abx@aux@segm{0}{0}{liu2018progressive}
\abx@aux@cite{elsken2019neural}
\abx@aux@segm{0}{0}{elsken2019neural}
\abx@aux@cite{mellor2021neural}
\abx@aux@segm{0}{0}{mellor2021neural}
\abx@aux@page{142}{39}
\abx@aux@page{143}{39}
\abx@aux@page{144}{39}
\abx@aux@page{145}{39}
\abx@aux@page{146}{39}
\abx@aux@page{147}{39}
\abx@aux@page{148}{39}
\abx@aux@page{149}{39}
\abx@aux@page{150}{39}
\abx@aux@cite{hoeffding1994probability}
\abx@aux@segm{0}{0}{hoeffding1994probability}
\abx@aux@cite{li2010contextual}
\abx@aux@segm{0}{0}{li2010contextual}
\abx@aux@cite{agrawal2012analysis}
\abx@aux@segm{0}{0}{agrawal2012analysis}
\abx@aux@cite{jamieson2016non}
\abx@aux@segm{0}{0}{jamieson2016non}
\abx@aux@cite{karnin2013almost}
\abx@aux@segm{0}{0}{karnin2013almost}
\abx@aux@cite{li2017hyperband}
\abx@aux@segm{0}{0}{li2017hyperband}
\abx@aux@cite{bubeck2012regret}
\abx@aux@segm{0}{0}{bubeck2012regret}
\abx@aux@cite{jamieson2014best}
\abx@aux@segm{0}{0}{jamieson2014best}
\abx@aux@cite{slivkins2019introduction}
\abx@aux@segm{0}{0}{slivkins2019introduction}
\@writefile{toc}{\defcounter {refsection}{0}\relax }\@writefile{toc}{\contentsline {paragraph}{Bandit Algorithm}{40}{paragraph*.30}\protected@file@percent }
\abx@aux@page{151}{40}
\abx@aux@page{152}{40}
\abx@aux@page{153}{40}
\abx@aux@page{154}{40}
\abx@aux@page{155}{40}
\abx@aux@page{156}{40}
\abx@aux@page{157}{40}
\abx@aux@page{158}{40}
\abx@aux@page{159}{40}
\abx@aux@cite{carpentier2015simple}
\abx@aux@segm{0}{0}{carpentier2015simple}
\abx@aux@cite{kaufmann2016complexity}
\abx@aux@segm{0}{0}{kaufmann2016complexity}
\@writefile{loa}{\defcounter {refsection}{0}\relax }\@writefile{loa}{\contentsline {algorithm}{\numberline {3}{\ignorespaces flowchart of successive halving algorithm\relax }}{41}{algorithm.3}\protected@file@percent }
\newlabel{alg:sha}{{3}{41}{flowchart of successive halving algorithm\relax }{algorithm.3}{}}
\abx@aux@page{160}{41}
\abx@aux@page{161}{41}
\abx@aux@cite{falkner2018bohb}
\abx@aux@segm{0}{0}{falkner2018bohb}
\abx@aux@cite{bertrand2017hyperparameter}
\abx@aux@segm{0}{0}{bertrand2017hyperparameter}
\abx@aux@cite{wang2018combination}
\abx@aux@segm{0}{0}{wang2018combination}
\abx@aux@cite{bergstra2011algorithms}
\abx@aux@segm{0}{0}{bergstra2011algorithms}
\abx@aux@page{162}{42}
\abx@aux@page{163}{42}
\abx@aux@page{164}{42}
\abx@aux@page{165}{42}
\@writefile{toc}{\defcounter {refsection}{0}\relax }\@writefile{toc}{\contentsline {subsection}{\numberline {4.2.3}Other methods}{42}{subsection.4.2.3}\protected@file@percent }
\abx@aux@cite{ruder2016overview}
\abx@aux@segm{0}{0}{ruder2016overview}
\abx@aux@cite{bengio2000gradient}
\abx@aux@segm{0}{0}{bengio2000gradient}
\abx@aux@cite{maclaurin2015gradient}
\abx@aux@segm{0}{0}{maclaurin2015gradient}
\abx@aux@cite{sutskever2014sequence}
\abx@aux@segm{0}{0}{sutskever2014sequence}
\abx@aux@cite{pedregosa2016hyperparameter}
\abx@aux@segm{0}{0}{pedregosa2016hyperparameter}
\abx@aux@cite{maclaurin2015gradient}
\abx@aux@segm{0}{0}{maclaurin2015gradient}
\abx@aux@cite{franceschi2017forward}
\abx@aux@segm{0}{0}{franceschi2017forward}
\abx@aux@cite{lee2020batch}
\abx@aux@segm{0}{0}{lee2020batch}
\abx@aux@cite{thiede2019gradient}
\abx@aux@segm{0}{0}{thiede2019gradient}
\abx@aux@cite{zoller2021benchmark}
\abx@aux@segm{0}{0}{zoller2021benchmark}
\abx@aux@cite{mahfoud1995parallel}
\abx@aux@segm{0}{0}{mahfoud1995parallel}
\abx@aux@cite{sengupta2019particle}
\abx@aux@segm{0}{0}{sengupta2019particle}
\abx@aux@cite{corander2008enhanced}
\abx@aux@segm{0}{0}{corander2008enhanced}
\@writefile{toc}{\defcounter {refsection}{0}\relax }\@writefile{toc}{\contentsline {paragraph}{Gradient-based optimization}{43}{paragraph*.31}\protected@file@percent }
\abx@aux@page{166}{43}
\abx@aux@page{167}{43}
\abx@aux@page{168}{43}
\abx@aux@page{169}{43}
\abx@aux@page{170}{43}
\abx@aux@page{171}{43}
\abx@aux@page{172}{43}
\abx@aux@page{173}{43}
\abx@aux@page{174}{43}
\abx@aux@page{175}{43}
\abx@aux@cite{jlassi2021bayesian}
\abx@aux@segm{0}{0}{jlassi2021bayesian}
\abx@aux@cite{kandasamy2017multi}
\abx@aux@segm{0}{0}{kandasamy2017multi}
\abx@aux@cite{biswas2020better}
\abx@aux@segm{0}{0}{biswas2020better}
\abx@aux@cite{zahedi2021optabc}
\abx@aux@segm{0}{0}{zahedi2021optabc}
\abx@aux@cite{serqueira2020population}
\abx@aux@segm{0}{0}{serqueira2020population}
\@writefile{toc}{\defcounter {refsection}{0}\relax }\@writefile{toc}{\contentsline {paragraph}{Hybrid Methodology}{44}{paragraph*.33}\protected@file@percent }
\abx@aux@page{176}{44}
\abx@aux@page{177}{44}
\abx@aux@page{178}{44}
\abx@aux@page{179}{44}
\abx@aux@page{180}{44}
\abx@aux@page{181}{44}
\abx@aux@page{182}{44}
\abx@aux@page{183}{44}
\@writefile{lof}{\defcounter {refsection}{0}\relax }\@writefile{lof}{\contentsline {figure}{\numberline {4.4}{\ignorespaces flowchart of grid-search}}{45}{figure.caption.24}\protected@file@percent }
\newlabel{fig:grid-search-cv-optimization-flow-chart}{{4.4}{45}{flowchart of grid-search}{figure.caption.24}{}}
\@writefile{lof}{\defcounter {refsection}{0}\relax }\@writefile{lof}{\contentsline {figure}{\numberline {4.5}{\ignorespaces flow-chart-of-bayesian-optimization}}{46}{figure.caption.27}\protected@file@percent }
\newlabel{fig:flow-chart-of-bayesian-optimization}{{4.5}{46}{flow-chart-of-bayesian-optimization}{figure.caption.27}{}}
\@writefile{lof}{\defcounter {refsection}{0}\relax }\@writefile{lof}{\contentsline {figure}{\numberline {4.6}{\ignorespaces SGD: Convex Loss Function\relax }}{46}{figure.caption.32}\protected@file@percent }
\newlabel{fig:sgdloss}{{4.6}{46}{SGD: Convex Loss Function\relax }{figure.caption.32}{}}
\BKM@entry{id=11,dest={636861707465722E35},srcline={1}}{436F6D70617269736F6E206F66206879706572706172616D65746572206F7074696D697A6174696F6E206D6574686F64}
\BKM@entry{id=12,dest={73656374696F6E2E352E31},srcline={8}}{50726F7320616E6420636F6E73206F66206879706572706172616D6574726963206F7074696D697A6174696F6E20616C676F726974686D}
\@writefile{toc}{\defcounter {refsection}{0}\relax }\@writefile{toc}{\contentsline {chapter}{\numberline {5}Comparison of hyperparameter optimization method}{47}{chapter.5}\protected@file@percent }
\@writefile{lof}{\defcounter {refsection}{0}\relax }\@writefile{lof}{\addvspace {10\p@ }}
\@writefile{lot}{\defcounter {refsection}{0}\relax }\@writefile{lot}{\addvspace {10\p@ }}
\newlabel{sec:othersmethods}{{5}{47}{Comparison of hyperparameter optimization method}{chapter.5}{}}
\@writefile{toc}{\defcounter {refsection}{0}\relax }\@writefile{toc}{\contentsline {section}{\numberline {5.1}Pros and cons of hyperparametric optimization algorithm}{47}{section.5.1}\protected@file@percent }
\@writefile{toc}{\defcounter {refsection}{0}\relax }\@writefile{toc}{\contentsline {subsection}{\numberline {5.1.1}Naive algorithm}{47}{subsection.5.1.1}\protected@file@percent }
\@writefile{toc}{\defcounter {refsection}{0}\relax }\@writefile{toc}{\contentsline {subsubsection}{Grid Search}{47}{subsubsection*.34}\protected@file@percent }
\@writefile{toc}{\defcounter {refsection}{0}\relax }\@writefile{toc}{\contentsline {subsubsection}{Random search}{48}{subsubsection*.35}\protected@file@percent }
\@writefile{toc}{\defcounter {refsection}{0}\relax }\@writefile{toc}{\contentsline {subsection}{\numberline {5.1.2}Bayes-based algorithm}{48}{subsection.5.1.2}\protected@file@percent }
\@writefile{toc}{\defcounter {refsection}{0}\relax }\@writefile{toc}{\contentsline {subsubsection}{Bayesian optimization-Gaussian process}{48}{subsubsection*.36}\protected@file@percent }
\@writefile{toc}{\defcounter {refsection}{0}\relax }\@writefile{toc}{\contentsline {subsubsection}{Bayesian optimization-Random forest}{48}{subsubsection*.37}\protected@file@percent }
\abx@aux@cite{mahfoud1995parallel}
\abx@aux@segm{0}{0}{mahfoud1995parallel}
\abx@aux@cite{pelikan1999boa}
\abx@aux@segm{0}{0}{pelikan1999boa}
\abx@aux@cite{katoch2020review}
\abx@aux@segm{0}{0}{katoch2020review}
\abx@aux@cite{wang2019influence}
\abx@aux@segm{0}{0}{wang2019influence}
\abx@aux@cite{sengupta2019particle}
\abx@aux@segm{0}{0}{sengupta2019particle}
\abx@aux@cite{chu2005parallel}
\abx@aux@segm{0}{0}{chu2005parallel}
\@writefile{toc}{\defcounter {refsection}{0}\relax }\@writefile{toc}{\contentsline {subsubsection}{Bayesian optimization-Tree parzen estimates}{49}{subsubsection*.38}\protected@file@percent }
\@writefile{toc}{\defcounter {refsection}{0}\relax }\@writefile{toc}{\contentsline {subsection}{\numberline {5.1.3}Metaheuristics algorithm}{49}{subsection.5.1.3}\protected@file@percent }
\@writefile{toc}{\defcounter {refsection}{0}\relax }\@writefile{toc}{\contentsline {subsubsection}{Genetic algorithm}{49}{subsubsection*.39}\protected@file@percent }
\abx@aux@page{184}{49}
\abx@aux@page{185}{49}
\abx@aux@page{186}{49}
\abx@aux@cite{li2019generalized}
\abx@aux@segm{0}{0}{li2019generalized}
\abx@aux@cite{karnin2013almost}
\abx@aux@segm{0}{0}{karnin2013almost}
\@writefile{toc}{\defcounter {refsection}{0}\relax }\@writefile{toc}{\contentsline {subsubsection}{Particle swarm optimization}{50}{subsubsection*.40}\protected@file@percent }
\abx@aux@page{187}{50}
\abx@aux@page{188}{50}
\abx@aux@page{189}{50}
\@writefile{toc}{\defcounter {refsection}{0}\relax }\@writefile{toc}{\contentsline {subsubsection}{Population-based training}{50}{subsubsection*.41}\protected@file@percent }
\abx@aux@page{190}{50}
\@writefile{toc}{\defcounter {refsection}{0}\relax }\@writefile{toc}{\contentsline {subsection}{\numberline {5.1.4}Multi-fidelity Model}{50}{subsection.5.1.4}\protected@file@percent }
\@writefile{toc}{\defcounter {refsection}{0}\relax }\@writefile{toc}{\contentsline {subsubsection}{Bandit algorithm}{50}{subsubsection*.42}\protected@file@percent }
\BKM@entry{id=13,dest={73656374696F6E2E352E32},srcline={150}}{506572666F726D616E6365206F6E207370656369666963206F626A656374697665}
\abx@aux@cite{wang2020parallel}
\abx@aux@segm{0}{0}{wang2020parallel}
\abx@aux@cite{ginsbourger2008multi}
\abx@aux@segm{0}{0}{ginsbourger2008multi}
\abx@aux@page{191}{51}
\@writefile{toc}{\defcounter {refsection}{0}\relax }\@writefile{toc}{\contentsline {section}{\numberline {5.2}Performance on specific objective}{51}{section.5.2}\protected@file@percent }
\@writefile{toc}{\defcounter {refsection}{0}\relax }\@writefile{toc}{\contentsline {subsection}{\numberline {5.2.1}Parallelism}{51}{subsection.5.2.1}\protected@file@percent }
\@writefile{lot}{\defcounter {refsection}{0}\relax }\@writefile{lot}{\contentsline {table}{\numberline {5.1}{\ignorespaces Comparison of hyper-parameter optimization methods\relax }}{52}{table.caption.43}\protected@file@percent }
\newlabel{tab:1}{{5.1}{52}{Comparison of hyper-parameter optimization methods\relax }{table.caption.43}{}}
\abx@aux@page{192}{53}
\abx@aux@page{193}{53}
\@writefile{toc}{\defcounter {refsection}{0}\relax }\@writefile{toc}{\contentsline {subsection}{\numberline {5.2.2}Multi-objective}{53}{subsection.5.2.2}\protected@file@percent }
\abx@aux@cite{chatterjee2018hybrid}
\abx@aux@segm{0}{0}{chatterjee2018hybrid}
\abx@aux@cite{zhang2007moea}
\abx@aux@segm{0}{0}{zhang2007moea}
\abx@aux@page{194}{54}
\abx@aux@page{195}{54}
\@writefile{toc}{\defcounter {refsection}{0}\relax }\@writefile{toc}{\contentsline {subsection}{\numberline {5.2.3}Scalabiity}{54}{subsection.5.2.3}\protected@file@percent }
\@writefile{lot}{\defcounter {refsection}{0}\relax }\@writefile{lot}{\contentsline {table}{\numberline {5.2}{\ignorespaces Comparison of characteristics between algorithms\relax }}{55}{table.caption.44}\protected@file@percent }
\newlabel{tab:char}{{5.2}{55}{Comparison of characteristics between algorithms\relax }{table.caption.44}{}}
\BKM@entry{id=14,dest={636861707465722E36},srcline={3}}{4879706572706172616D65746572204F7074696D697A6174696F6E204672616D65776F726B}
\abx@aux@cite{thornton2012auto}
\abx@aux@segm{0}{0}{thornton2012auto}
\abx@aux@cite{hall2009weka}
\abx@aux@segm{0}{0}{hall2009weka}
\BKM@entry{id=15,dest={73656374696F6E2E362E31},srcline={13}}{4E6169766520616C676F726974686D}
\BKM@entry{id=16,dest={73656374696F6E2E362E32},srcline={21}}{42617965732D626173656420616C676F726974686D}
\abx@aux@cite{bergstra2013hyperopt}
\abx@aux@segm{0}{0}{bergstra2013hyperopt}
\abx@aux@cite{pedregosa2011scikit}
\abx@aux@segm{0}{0}{pedregosa2011scikit}
\abx@aux@cite{komer2014hyperopt}
\abx@aux@segm{0}{0}{komer2014hyperopt}
\@writefile{toc}{\defcounter {refsection}{0}\relax }\@writefile{toc}{\contentsline {chapter}{\numberline {6}Hyperparameter Optimization Framework}{56}{chapter.6}\protected@file@percent }
\@writefile{lof}{\defcounter {refsection}{0}\relax }\@writefile{lof}{\addvspace {10\p@ }}
\@writefile{lot}{\defcounter {refsection}{0}\relax }\@writefile{lot}{\addvspace {10\p@ }}
\newlabel{sec:framework}{{6}{56}{Hyperparameter Optimization Framework}{chapter.6}{}}
\abx@aux@page{196}{56}
\abx@aux@page{197}{56}
\@writefile{toc}{\defcounter {refsection}{0}\relax }\@writefile{toc}{\contentsline {section}{\numberline {6.1}Naive algorithm}{56}{section.6.1}\protected@file@percent }
\abx@aux@cite{martinez2014bayesopt}
\abx@aux@segm{0}{0}{martinez2014bayesopt}
\abx@aux@cite{knudde2017gpflowopt}
\abx@aux@segm{0}{0}{knudde2017gpflowopt}
\@writefile{toc}{\defcounter {refsection}{0}\relax }\@writefile{toc}{\contentsline {section}{\numberline {6.2}Bayes-based algorithm}{57}{section.6.2}\protected@file@percent }
\@writefile{toc}{\defcounter {refsection}{0}\relax }\@writefile{toc}{\contentsline {paragraph}{HyperOpt}{57}{paragraph*.46}\protected@file@percent }
\abx@aux@page{198}{57}
\abx@aux@page{199}{57}
\abx@aux@page{200}{57}
\@writefile{toc}{\defcounter {refsection}{0}\relax }\@writefile{toc}{\contentsline {paragraph}{BayesOpt}{57}{paragraph*.47}\protected@file@percent }
\abx@aux@page{201}{57}
\@writefile{toc}{\defcounter {refsection}{0}\relax }\@writefile{toc}{\contentsline {paragraph}{GPflowOpt}{57}{paragraph*.48}\protected@file@percent }
\abx@aux@page{202}{57}
\abx@aux@cite{head2018scikit}
\abx@aux@segm{0}{0}{head2018scikit}
\abx@aux@cite{akiba2019optuna}
\abx@aux@segm{0}{0}{akiba2019optuna}
\BKM@entry{id=17,dest={73656374696F6E2E362E33},srcline={71}}{48796272696420616C676F726974686D}
\abx@aux@cite{golovin2017google}
\abx@aux@segm{0}{0}{golovin2017google}
\@writefile{toc}{\defcounter {refsection}{0}\relax }\@writefile{toc}{\contentsline {paragraph}{Skopt}{58}{paragraph*.49}\protected@file@percent }
\abx@aux@page{203}{58}
\@writefile{toc}{\defcounter {refsection}{0}\relax }\@writefile{toc}{\contentsline {paragraph}{Optuna}{58}{paragraph*.50}\protected@file@percent }
\abx@aux@page{204}{58}
\@writefile{toc}{\defcounter {refsection}{0}\relax }\@writefile{toc}{\contentsline {section}{\numberline {6.3}Hybrid algorithm}{58}{section.6.3}\protected@file@percent }
\@writefile{toc}{\defcounter {refsection}{0}\relax }\@writefile{toc}{\contentsline {paragraph}{Google Vizier}{58}{paragraph*.51}\protected@file@percent }
\abx@aux@page{205}{58}
\abx@aux@cite{koch2018autotune}
\abx@aux@segm{0}{0}{koch2018autotune}
\abx@aux@cite{liaw2018tune}
\abx@aux@segm{0}{0}{liaw2018tune}
\@writefile{toc}{\defcounter {refsection}{0}\relax }\@writefile{toc}{\contentsline {paragraph}{Autotune}{59}{paragraph*.52}\protected@file@percent }
\abx@aux@page{206}{59}
\@writefile{toc}{\defcounter {refsection}{0}\relax }\@writefile{toc}{\contentsline {paragraph}{Ray Tune}{59}{paragraph*.53}\protected@file@percent }
\abx@aux@page{207}{59}
\@writefile{lot}{\defcounter {refsection}{0}\relax }\@writefile{lot}{\contentsline {table}{\numberline {6.1}{\ignorespaces Paper Query Results\relax }}{60}{table.caption.54}\protected@file@percent }
\newlabel{tab:framework}{{6.1}{60}{Paper Query Results\relax }{table.caption.54}{}}
\BKM@entry{id=18,dest={636861707465722E37},srcline={4}}{43757272656E74204973737565732C204368616C6C656E6765732C20616E642046757475726520526573656172636820446972656374696F6E7320}
\BKM@entry{id=19,dest={73656374696F6E2E372E31},srcline={7}}{73746174697374696320616E616C79736973}
\BKM@entry{id=20,dest={73656374696F6E2E372E32},srcline={27}}{46757475726520776F726B}
\@writefile{toc}{\defcounter {refsection}{0}\relax }\@writefile{toc}{\contentsline {chapter}{\numberline {7}Current Issues, Challenges, and Future Research Directions }{61}{chapter.7}\protected@file@percent }
\@writefile{lof}{\defcounter {refsection}{0}\relax }\@writefile{lof}{\addvspace {10\p@ }}
\@writefile{lot}{\defcounter {refsection}{0}\relax }\@writefile{lot}{\addvspace {10\p@ }}
\newlabel{sec:futuredirections}{{7}{61}{Current Issues, Challenges, and Future Research Directions}{chapter.7}{}}
\@writefile{toc}{\defcounter {refsection}{0}\relax }\@writefile{toc}{\contentsline {section}{\numberline {7.1}statistic analysis}{61}{section.7.1}\protected@file@percent }
\@writefile{lof}{\defcounter {refsection}{0}\relax }\@writefile{lof}{\contentsline {figure}{\numberline {7.1}{\ignorespaces Research on related fields of hyperparametric optimization\relax }}{61}{figure.caption.56}\protected@file@percent }
\newlabel{fig:statistic}{{7.1}{61}{Research on related fields of hyperparametric optimization\relax }{figure.caption.56}{}}
\@writefile{lof}{\defcounter {refsection}{0}\relax }\@writefile{lof}{\contentsline {figure}{\numberline {7.2}{\ignorespaces Timeline of hyperparameter optimization\relax }}{62}{figure.caption.57}\protected@file@percent }
\newlabel{fig:time}{{7.2}{62}{Timeline of hyperparameter optimization\relax }{figure.caption.57}{}}
\@writefile{toc}{\defcounter {refsection}{0}\relax }\@writefile{toc}{\contentsline {section}{\numberline {7.2}Future work}{62}{section.7.2}\protected@file@percent }
\@writefile{toc}{\defcounter {refsection}{0}\relax }\@writefile{toc}{\contentsline {subsection}{\numberline {7.2.1}Benchmarks and Comparability}{62}{subsection.7.2.1}\protected@file@percent }
\newlabel{sec:Benchmarks}{{7.2.1}{62}{Benchmarks and Comparability}{subsection.7.2.1}{}}
\@writefile{toc}{\defcounter {refsection}{0}\relax }\@writefile{toc}{\contentsline {subsection}{\numberline {7.2.2}Overfitting and Generalization}{62}{subsection.7.2.2}\protected@file@percent }
\newlabel{sec:Overfitting}{{7.2.2}{62}{Overfitting and Generalization}{subsection.7.2.2}{}}
\abx@aux@cite{cawley2010over}
\abx@aux@segm{0}{0}{cawley2010over}
\abx@aux@cite{10.14778/3007263.3007279}
\abx@aux@segm{0}{0}{10.14778/3007263.3007279}
\abx@aux@cite{meng2016mllib}
\abx@aux@segm{0}{0}{meng2016mllib}
\abx@aux@page{208}{63}
\@writefile{toc}{\defcounter {refsection}{0}\relax }\@writefile{toc}{\contentsline {subsection}{\numberline {7.2.3}Scalability}{63}{subsection.7.2.3}\protected@file@percent }
\newlabel{sec:Scalability}{{7.2.3}{63}{Scalability}{subsection.7.2.3}{}}
\abx@aux@page{209}{64}
\abx@aux@page{210}{64}
\@writefile{toc}{\defcounter {refsection}{0}\relax }\@writefile{toc}{\contentsline {subsection}{\numberline {7.2.4}Continuous updating capability}{64}{subsection.7.2.4}\protected@file@percent }
\newlabel{sec:Continuous}{{7.2.4}{64}{Continuous updating capability}{subsection.7.2.4}{}}
\BKM@entry{id=21,dest={636861707465722A2E3538},srcline={112}}{41636B6E6F776C656467656D656E7473}
\@writefile{toc}{\defcounter {refsection}{0}\relax }\@writefile{toc}{\contentsline {chapter}{Acknowledgements}{65}{chapter*.58}\protected@file@percent }
\BKM@entry{id=22,dest={636861707465722A2E3539},srcline={123}}{5265666572656E636573}
\@writefile{toc}{\defcounter {refsection}{0}\relax }\@writefile{toc}{\contentsline {chapter}{References}{66}{chapter*.59}\protected@file@percent }
\abx@aux@page{211}{66}
\abx@aux@page{212}{66}
\abx@aux@page{213}{66}
\abx@aux@page{214}{66}
\abx@aux@page{215}{66}
\abx@aux@page{216}{66}
\abx@aux@page{217}{66}
\abx@aux@page{218}{67}
\abx@aux@page{219}{67}
\abx@aux@page{220}{67}
\abx@aux@page{221}{67}
\abx@aux@page{222}{67}
\abx@aux@page{223}{67}
\abx@aux@page{224}{67}
\abx@aux@page{225}{67}
\abx@aux@page{226}{67}
\abx@aux@page{227}{67}
\abx@aux@page{228}{68}
\abx@aux@page{229}{68}
\abx@aux@page{230}{68}
\abx@aux@page{231}{68}
\abx@aux@page{232}{68}
\abx@aux@page{233}{68}
\abx@aux@page{234}{68}
\abx@aux@page{235}{68}
\abx@aux@page{236}{68}
\abx@aux@page{237}{68}
\abx@aux@page{238}{69}
\abx@aux@page{239}{69}
\abx@aux@page{240}{69}
\abx@aux@page{241}{69}
\abx@aux@page{242}{69}
\abx@aux@page{243}{69}
\abx@aux@page{244}{69}
\abx@aux@page{245}{69}
\abx@aux@page{246}{69}
\abx@aux@page{247}{69}
\abx@aux@page{248}{69}
\abx@aux@page{249}{70}
\abx@aux@page{250}{70}
\abx@aux@page{251}{70}
\abx@aux@page{252}{70}
\abx@aux@page{253}{70}
\abx@aux@page{254}{70}
\abx@aux@page{255}{70}
\abx@aux@page{256}{70}
\abx@aux@page{257}{70}
\abx@aux@page{258}{70}
\abx@aux@page{259}{70}
\abx@aux@page{260}{70}
\abx@aux@page{261}{71}
\abx@aux@page{262}{71}
\abx@aux@page{263}{71}
\abx@aux@page{264}{71}
\abx@aux@page{265}{71}
\abx@aux@page{266}{71}
\abx@aux@page{267}{71}
\abx@aux@page{268}{71}
\abx@aux@page{269}{71}
\abx@aux@page{270}{71}
\abx@aux@page{271}{71}
\abx@aux@page{272}{72}
\abx@aux@page{273}{72}
\abx@aux@page{274}{72}
\abx@aux@page{275}{72}
\abx@aux@page{276}{72}
\abx@aux@page{277}{72}
\abx@aux@page{278}{72}
\abx@aux@page{279}{72}
\abx@aux@page{280}{72}
\abx@aux@page{281}{72}
\abx@aux@page{282}{72}
\abx@aux@page{283}{73}
\abx@aux@page{284}{73}
\abx@aux@page{285}{73}
\abx@aux@page{286}{73}
\abx@aux@page{287}{73}
\abx@aux@page{288}{73}
\abx@aux@page{289}{73}
\abx@aux@page{290}{73}
\abx@aux@page{291}{73}
\abx@aux@page{292}{73}
\abx@aux@page{293}{73}
\abx@aux@page{294}{74}
\abx@aux@page{295}{74}
\abx@aux@page{296}{74}
\abx@aux@page{297}{74}
\abx@aux@page{298}{74}
\abx@aux@page{299}{74}
\abx@aux@page{300}{74}
\abx@aux@page{301}{74}
\abx@aux@page{302}{74}
\abx@aux@page{303}{74}
\abx@aux@page{304}{74}
\abx@aux@page{305}{75}
\abx@aux@page{306}{75}
\abx@aux@page{307}{75}
\abx@aux@page{308}{75}
\abx@aux@page{309}{75}
\abx@aux@page{310}{75}
\abx@aux@page{311}{75}
\abx@aux@page{312}{75}
\abx@aux@page{313}{75}
\abx@aux@page{314}{75}
\abx@aux@page{315}{76}
\abx@aux@page{316}{76}
\abx@aux@page{317}{76}
\abx@aux@page{318}{76}
\abx@aux@page{319}{76}
\abx@aux@page{320}{76}
\abx@aux@page{321}{76}
\abx@aux@page{322}{76}
\abx@aux@page{323}{76}
\abx@aux@page{324}{76}
\abx@aux@page{325}{76}
\abx@aux@page{326}{76}
\abx@aux@page{327}{77}
\abx@aux@page{328}{77}
\abx@aux@page{329}{77}
\abx@aux@page{330}{77}
\abx@aux@page{331}{77}
\abx@aux@page{332}{77}
\abx@aux@page{333}{77}
\abx@aux@page{334}{77}
\abx@aux@page{335}{77}
\abx@aux@page{336}{77}
\abx@aux@page{337}{77}
\abx@aux@page{338}{77}
\abx@aux@page{339}{77}
\abx@aux@page{340}{78}
\abx@aux@page{341}{78}
\abx@aux@page{342}{78}
\abx@aux@page{343}{78}
\abx@aux@page{344}{78}
\abx@aux@page{345}{78}
\abx@aux@page{346}{78}
\abx@aux@page{347}{78}
\abx@aux@page{348}{78}
\abx@aux@page{349}{78}
\abx@aux@page{350}{78}
\abx@aux@page{351}{78}
\abx@aux@page{352}{78}
\abx@aux@page{353}{78}
\abx@aux@page{354}{79}
\abx@aux@page{355}{79}
\abx@aux@page{356}{79}
\abx@aux@page{357}{79}
\abx@aux@page{358}{79}
\abx@aux@page{359}{79}
\abx@aux@page{360}{79}
\abx@aux@page{361}{79}
\abx@aux@page{362}{79}
\abx@aux@page{363}{79}
\abx@aux@page{364}{79}
\abx@aux@page{365}{79}
\abx@aux@page{366}{80}
\abx@aux@page{367}{80}
\abx@aux@page{368}{80}
\abx@aux@page{369}{80}
\abx@aux@page{370}{80}
\abx@aux@page{371}{80}
\abx@aux@page{372}{80}
\abx@aux@page{373}{80}
\abx@aux@page{374}{80}
\abx@aux@page{375}{80}
\abx@aux@page{376}{80}
\abx@aux@page{377}{80}
\abx@aux@page{378}{81}
\abx@aux@page{379}{81}
\abx@aux@page{380}{81}
\abx@aux@page{381}{81}
\newlabel{LastPage}{{}{81}{}{page.81}{}}
\xdef\lastpage@lastpage{81}
\xdef\lastpage@lastpageHy{81}
\abx@aux@defaultrefcontext{0}{agrawal2012analysis}{nyt/global//global/global}
\abx@aux@defaultrefcontext{0}{akiba2019optuna}{nyt/global//global/global}
\abx@aux@defaultrefcontext{0}{altiparmak2006genetic}{nyt/global//global/global}
\abx@aux@defaultrefcontext{0}{back1993overview}{nyt/global//global/global}
\abx@aux@defaultrefcontext{0}{bai2010analysis}{nyt/global//global/global}
\abx@aux@defaultrefcontext{0}{baker2017accelerating}{nyt/global//global/global}
\abx@aux@defaultrefcontext{0}{bengio2000gradient}{nyt/global//global/global}
\abx@aux@defaultrefcontext{0}{bergstra2011algorithms}{nyt/global//global/global}
\abx@aux@defaultrefcontext{0}{bergstra2012random}{nyt/global//global/global}
\abx@aux@defaultrefcontext{0}{bergstra2013hyperopt}{nyt/global//global/global}
\abx@aux@defaultrefcontext{0}{bergstra2013making}{nyt/global//global/global}
\abx@aux@defaultrefcontext{0}{bertrand2017hyperparameter}{nyt/global//global/global}
\abx@aux@defaultrefcontext{0}{bischl2021hyperparameter}{nyt/global//global/global}
\abx@aux@defaultrefcontext{0}{bishop1995neural}{nyt/global//global/global}
\abx@aux@defaultrefcontext{0}{biswas2020better}{nyt/global//global/global}
\abx@aux@defaultrefcontext{0}{10.14778/3007263.3007279}{nyt/global//global/global}
\abx@aux@defaultrefcontext{0}{bouktif2018optimal}{nyt/global//global/global}
\abx@aux@defaultrefcontext{0}{brochu2010bayesian}{nyt/global//global/global}
\abx@aux@defaultrefcontext{0}{bubeck2012regret}{nyt/global//global/global}
\abx@aux@defaultrefcontext{0}{carpentier2015simple}{nyt/global//global/global}
\abx@aux@defaultrefcontext{0}{cawley2010over}{nyt/global//global/global}
\abx@aux@defaultrefcontext{0}{chatterjee2018hybrid}{nyt/global//global/global}
\abx@aux@defaultrefcontext{0}{chen2004model}{nyt/global//global/global}
\abx@aux@defaultrefcontext{0}{chu2005parallel}{nyt/global//global/global}
\abx@aux@defaultrefcontext{0}{colorni1991distributed}{nyt/global//global/global}
\abx@aux@defaultrefcontext{0}{corander2008enhanced}{nyt/global//global/global}
\abx@aux@defaultrefcontext{0}{dahl2013improving}{nyt/global//global/global}
\abx@aux@defaultrefcontext{0}{datta2020survey}{nyt/global//global/global}
\abx@aux@defaultrefcontext{0}{deng2020effective}{nyt/global//global/global}
\abx@aux@defaultrefcontext{0}{deng2019improved}{nyt/global//global/global}
\abx@aux@defaultrefcontext{0}{di2018genetic}{nyt/global//global/global}
\abx@aux@defaultrefcontext{0}{ding2011optimizing}{nyt/global//global/global}
\abx@aux@defaultrefcontext{0}{domhan2015speeding}{nyt/global//global/global}
\abx@aux@defaultrefcontext{0}{dorigo2006ant}{nyt/global//global/global}
\abx@aux@defaultrefcontext{0}{dorigo1991positive}{nyt/global//global/global}
\abx@aux@defaultrefcontext{0}{dorigo1996ant}{nyt/global//global/global}
\abx@aux@defaultrefcontext{0}{elsken2019neural}{nyt/global//global/global}
\abx@aux@defaultrefcontext{0}{falkner2018bohb}{nyt/global//global/global}
\abx@aux@defaultrefcontext{0}{fayed2019speed}{nyt/global//global/global}
\abx@aux@defaultrefcontext{0}{fernandez2016review}{nyt/global//global/global}
\abx@aux@defaultrefcontext{0}{feurer2019hyperparameter}{nyt/global//global/global}
\abx@aux@defaultrefcontext{0}{fischetti2019embedded}{nyt/global//global/global}
\abx@aux@defaultrefcontext{0}{forrester2007multi}{nyt/global//global/global}
\abx@aux@defaultrefcontext{0}{franceschi2017forward}{nyt/global//global/global}
\abx@aux@defaultrefcontext{0}{frazier2018tutorial}{nyt/global//global/global}
\abx@aux@defaultrefcontext{0}{galuzzi2020hyperparameter}{nyt/global//global/global}
\abx@aux@defaultrefcontext{0}{ginsbourger2008multi}{nyt/global//global/global}
\abx@aux@defaultrefcontext{0}{glorot2010understanding}{nyt/global//global/global}
\abx@aux@defaultrefcontext{0}{gogna2013metaheuristics}{nyt/global//global/global}
\abx@aux@defaultrefcontext{0}{golovin2017google}{nyt/global//global/global}
\abx@aux@defaultrefcontext{0}{goodfellow2014generative}{nyt/global//global/global}
\abx@aux@defaultrefcontext{0}{graves2013speech}{nyt/global//global/global}
\abx@aux@defaultrefcontext{0}{gulcu2020hyper}{nyt/global//global/global}
\abx@aux@defaultrefcontext{0}{hall2009weka}{nyt/global//global/global}
\abx@aux@defaultrefcontext{0}{han2011data}{nyt/global//global/global}
\abx@aux@defaultrefcontext{0}{hansen2003reducing}{nyt/global//global/global}
\abx@aux@defaultrefcontext{0}{harrison2010introduction}{nyt/global//global/global}
\abx@aux@defaultrefcontext{0}{hartigan1979algorithm}{nyt/global//global/global}
\abx@aux@defaultrefcontext{0}{he2015delving}{nyt/global//global/global}
\abx@aux@defaultrefcontext{0}{head2018scikit}{nyt/global//global/global}
\abx@aux@defaultrefcontext{0}{hernandez2014predictive}{nyt/global//global/global}
\abx@aux@defaultrefcontext{0}{hoeffding1994probability}{nyt/global//global/global}
\abx@aux@defaultrefcontext{0}{hoffman2011portfolio}{nyt/global//global/global}
\abx@aux@defaultrefcontext{0}{holland1992genetic}{nyt/global//global/global}
\abx@aux@defaultrefcontext{0}{holland1992adaptation}{nyt/global//global/global}
\abx@aux@defaultrefcontext{0}{hornik1989multilayer}{nyt/global//global/global}
\abx@aux@defaultrefcontext{0}{hu2019multi}{nyt/global//global/global}
\abx@aux@defaultrefcontext{0}{hutter2011sequential}{nyt/global//global/global}
\abx@aux@defaultrefcontext{0}{hutter2019automated}{nyt/global//global/global}
\abx@aux@defaultrefcontext{0}{jaderberg2017population}{nyt/global//global/global}
\abx@aux@defaultrefcontext{0}{jafar2021high}{nyt/global//global/global}
\abx@aux@defaultrefcontext{0}{jafar2020hyperparameter}{nyt/global//global/global}
\abx@aux@defaultrefcontext{0}{jamieson2014best}{nyt/global//global/global}
\abx@aux@defaultrefcontext{0}{jamieson2016non}{nyt/global//global/global}
\abx@aux@defaultrefcontext{0}{jlassi2021bayesian}{nyt/global//global/global}
\abx@aux@defaultrefcontext{0}{jones1998efficient}{nyt/global//global/global}
\abx@aux@defaultrefcontext{0}{jordan2015machine}{nyt/global//global/global}
\abx@aux@defaultrefcontext{0}{kaelbling1996reinforcement}{nyt/global//global/global}
\abx@aux@defaultrefcontext{0}{kandasamy2017multi}{nyt/global//global/global}
\abx@aux@defaultrefcontext{0}{karnin2013almost}{nyt/global//global/global}
\abx@aux@defaultrefcontext{0}{katoch2020review}{nyt/global//global/global}
\abx@aux@defaultrefcontext{0}{kaufmann2016complexity}{nyt/global//global/global}
\abx@aux@defaultrefcontext{0}{keller1985fuzzy}{nyt/global//global/global}
\abx@aux@defaultrefcontext{0}{kennedy1995particle}{nyt/global//global/global}
\abx@aux@defaultrefcontext{0}{khan2020hyper}{nyt/global//global/global}
\abx@aux@defaultrefcontext{0}{kirkpatrick1983optimization}{nyt/global//global/global}
\abx@aux@defaultrefcontext{0}{klein2016learning}{nyt/global//global/global}
\abx@aux@defaultrefcontext{0}{knudde2017gpflowopt}{nyt/global//global/global}
\abx@aux@defaultrefcontext{0}{koch2018autotune}{nyt/global//global/global}
\abx@aux@defaultrefcontext{0}{kohavi1995automatic}{nyt/global//global/global}
\abx@aux@defaultrefcontext{0}{komer2014hyperopt}{nyt/global//global/global}
\abx@aux@defaultrefcontext{0}{koza1994genetic}{nyt/global//global/global}
\abx@aux@defaultrefcontext{0}{krivulin2005parallel}{nyt/global//global/global}
\abx@aux@defaultrefcontext{0}{krizhevsky2012imagenet}{nyt/global//global/global}
\abx@aux@defaultrefcontext{0}{kushner1964new}{nyt/global//global/global}
\abx@aux@defaultrefcontext{0}{lecun2015deep}{nyt/global//global/global}
\abx@aux@defaultrefcontext{0}{lee2020batch}{nyt/global//global/global}
\abx@aux@defaultrefcontext{0}{li2019generalized}{nyt/global//global/global}
\abx@aux@defaultrefcontext{0}{li2010contextual}{nyt/global//global/global}
\abx@aux@defaultrefcontext{0}{li2017hyperband}{nyt/global//global/global}
\abx@aux@defaultrefcontext{0}{li2020multi}{nyt/global//global/global}
\abx@aux@defaultrefcontext{0}{liaw2018tune}{nyt/global//global/global}
\abx@aux@defaultrefcontext{0}{lindley1972bayes}{nyt/global//global/global}
\abx@aux@defaultrefcontext{0}{liu2018progressive}{nyt/global//global/global}
\abx@aux@defaultrefcontext{0}{lorenzo2017particle}{nyt/global//global/global}
\abx@aux@defaultrefcontext{0}{loshchilov2016cma}{nyt/global//global/global}
\abx@aux@defaultrefcontext{0}{maclaurin2015gradient}{nyt/global//global/global}
\abx@aux@defaultrefcontext{0}{mahfoud1995parallel}{nyt/global//global/global}
\abx@aux@defaultrefcontext{0}{martinez2014bayesopt}{nyt/global//global/global}
\abx@aux@defaultrefcontext{0}{mccallum1998comparison}{nyt/global//global/global}
\abx@aux@defaultrefcontext{0}{mckay2000comparison}{nyt/global//global/global}
\abx@aux@defaultrefcontext{0}{melis2017state}{nyt/global//global/global}
\abx@aux@defaultrefcontext{0}{mellor2021neural}{nyt/global//global/global}
\abx@aux@defaultrefcontext{0}{meng2016mllib}{nyt/global//global/global}
\abx@aux@defaultrefcontext{0}{mishkin2015all}{nyt/global//global/global}
\abx@aux@defaultrefcontext{0}{mockus1978application}{nyt/global//global/global}
\abx@aux@defaultrefcontext{0}{movckus1975bayesian}{nyt/global//global/global}
\abx@aux@defaultrefcontext{0}{mohammed2016machine}{nyt/global//global/global}
\abx@aux@defaultrefcontext{0}{mohri2018foundations}{nyt/global//global/global}
\abx@aux@defaultrefcontext{0}{nair2010rectified}{nyt/global//global/global}
\abx@aux@defaultrefcontext{0}{neter1996applied}{nyt/global//global/global}
\abx@aux@defaultrefcontext{0}{ng2017improving}{nyt/global//global/global}
\abx@aux@defaultrefcontext{0}{nwankpa2018activation}{nyt/global//global/global}
\abx@aux@defaultrefcontext{0}{ozaki2020multiobjective}{nyt/global//global/global}
\abx@aux@defaultrefcontext{0}{pedregosa2016hyperparameter}{nyt/global//global/global}
\abx@aux@defaultrefcontext{0}{pedregosa2011scikit}{nyt/global//global/global}
\abx@aux@defaultrefcontext{0}{peherstorfer2018survey}{nyt/global//global/global}
\abx@aux@defaultrefcontext{0}{pelikan1999boa}{nyt/global//global/global}
\abx@aux@defaultrefcontext{0}{prechelt1998early}{nyt/global//global/global}
\abx@aux@defaultrefcontext{0}{ram1996parallel}{nyt/global//global/global}
\abx@aux@defaultrefcontext{0}{ramachandran2017searching}{nyt/global//global/global}
\abx@aux@defaultrefcontext{0}{rawal2018nodes}{nyt/global//global/global}
\abx@aux@defaultrefcontext{0}{raychaudhuri2008introduction}{nyt/global//global/global}
\abx@aux@defaultrefcontext{0}{rini2011particle}{nyt/global//global/global}
\abx@aux@defaultrefcontext{0}{ruder2016overview}{nyt/global//global/global}
\abx@aux@defaultrefcontext{0}{safavian1991survey}{nyt/global//global/global}
\abx@aux@defaultrefcontext{0}{schaffer1993selecting}{nyt/global//global/global}
\abx@aux@defaultrefcontext{0}{sen2018multi}{nyt/global//global/global}
\abx@aux@defaultrefcontext{0}{sengupta2019particle}{nyt/global//global/global}
\abx@aux@defaultrefcontext{0}{serqueira2020population}{nyt/global//global/global}
\abx@aux@defaultrefcontext{0}{shahriari2015taking}{nyt/global//global/global}
\abx@aux@defaultrefcontext{0}{shawe2004kernel}{nyt/global//global/global}
\abx@aux@defaultrefcontext{0}{sivanandam2008genetic}{nyt/global//global/global}
\abx@aux@defaultrefcontext{0}{slivkins2019introduction}{nyt/global//global/global}
\abx@aux@defaultrefcontext{0}{slowik2020evolutionary}{nyt/global//global/global}
\abx@aux@defaultrefcontext{0}{snoek2012practical}{nyt/global//global/global}
\abx@aux@defaultrefcontext{0}{sutskever2014sequence}{nyt/global//global/global}
\abx@aux@defaultrefcontext{0}{swersky2014freeze}{nyt/global//global/global}
\abx@aux@defaultrefcontext{0}{syarif2016svm}{nyt/global//global/global}
\abx@aux@defaultrefcontext{0}{tan2019efficientnet}{nyt/global//global/global}
\abx@aux@defaultrefcontext{0}{thiede2019gradient}{nyt/global//global/global}
\abx@aux@defaultrefcontext{0}{thornton2012auto}{nyt/global//global/global}
\abx@aux@defaultrefcontext{0}{tran2020hyperparameter}{nyt/global//global/global}
\abx@aux@defaultrefcontext{0}{tsai2020optimizing}{nyt/global//global/global}
\abx@aux@defaultrefcontext{0}{vaswani2017attention}{nyt/global//global/global}
\abx@aux@defaultrefcontext{0}{wang2020parallel}{nyt/global//global/global}
\abx@aux@defaultrefcontext{0}{wang2018combination}{nyt/global//global/global}
\abx@aux@defaultrefcontext{0}{wang2019influence}{nyt/global//global/global}
\abx@aux@defaultrefcontext{0}{williams1996gaussian}{nyt/global//global/global}
\abx@aux@defaultrefcontext{0}{winston1992artificial}{nyt/global//global/global}
\abx@aux@defaultrefcontext{0}{xiong2020minimizing}{nyt/global//global/global}
\abx@aux@defaultrefcontext{0}{yan2008study}{nyt/global//global/global}
\abx@aux@defaultrefcontext{0}{yang2020hyperparameter}{nyt/global//global/global}
\abx@aux@defaultrefcontext{0}{yao1999evolutionary}{nyt/global//global/global}
\abx@aux@defaultrefcontext{0}{yao2007early}{nyt/global//global/global}
\abx@aux@defaultrefcontext{0}{yin2021autotinybert}{nyt/global//global/global}
\abx@aux@defaultrefcontext{0}{yu2020hyper}{nyt/global//global/global}
\abx@aux@defaultrefcontext{0}{zahedi2021optabc}{nyt/global//global/global}
\abx@aux@defaultrefcontext{0}{zeiler2013rectified}{nyt/global//global/global}
\abx@aux@defaultrefcontext{0}{zhang2007moea}{nyt/global//global/global}
\abx@aux@defaultrefcontext{0}{zoller2021benchmark}{nyt/global//global/global}
